CMDLINE mpirun -np 9 ./fenics-test
MEM 0.949219 1591728487.6074
MEM 200.652344 1591728487.7116
CHLD 0 22.007812 1591728487.7142
CHLD 1 21.820312 1591728487.7142
CHLD 2 22.289062 1591728487.7143
CHLD 3 21.968750 1591728487.7143
CHLD 4 21.976562 1591728487.7144
CHLD 5 17.074219 1591728487.7144
CHLD 6 21.957031 1591728487.7145
CHLD 7 16.882812 1591728487.7145
CHLD 8 16.875000 1591728487.7146
MEM 218.761719 1591728487.8178
CHLD 0 22.539062 1591728487.8203
CHLD 1 22.328125 1591728487.8203
CHLD 2 22.792969 1591728487.8204
CHLD 3 22.468750 1591728487.8204
CHLD 4 22.480469 1591728487.8205
CHLD 5 21.984375 1591728487.8205
CHLD 6 22.480469 1591728487.8206
CHLD 7 21.945312 1591728487.8206
CHLD 8 21.941406 1591728487.8207
MEM 0.000000 1591728487.9218
