

======================================================================
Oomph-lib WARNING

 at oomph_utilities.cc:547

 in set_directory()

--------------------------------------------------------

Problem opening output file.
I suspect you haven't created the output directory RESLT

======================================================================



======================================================================
Oomph-lib WARNING

 at oomph_utilities.cc:547

 in set_directory()

--------------------------------------------------------

Problem opening output file.
I suspect you haven't created the output directory RESLT

======================================================================



======================================================================
Oomph-lib WARNING

 at oomph_utilities.cc:547

 in set_directory()

--------------------------------------------------------

Problem opening output file.
I suspect you haven't created the output directory RESLT

======================================================================



======================================================================
Oomph-lib WARNING

 at oomph_utilities.cc:547

 in set_directory()

--------------------------------------------------------

Problem opening output file.
I suspect you haven't created the output directory RESLT

======================================================================

	Command being timed: "mpirun -np 4 ./oomph-test"
	User time (seconds): 3.40
	System time (seconds): 0.12
	Percent of CPU this job got: 394%
	Elapsed (wall clock) time (h:mm:ss or m:ss): 0:00.89
	Average shared text size (kbytes): 0
	Average unshared data size (kbytes): 0
	Average stack size (kbytes): 0
	Average total size (kbytes): 0
	Maximum resident set size (kbytes): 52876
	Average resident set size (kbytes): 0
	Major (requiring I/O) page faults: 0
	Minor (reclaiming a frame) page faults: 42761
	Voluntary context switches: 105
	Involuntary context switches: 4
	Swaps: 0
	File system inputs: 0
	File system outputs: 8
	Socket messages sent: 0
	Socket messages received: 0
	Signals delivered: 0
	Page size (bytes): 4096
	Exit status: 0
