desc: --massif-out-file=massif-report.txt --time-unit=ms
cmd: mpirun -np 8 ./oomph-test
time_unit: ms
#-----------
snapshot=0
#-----------
time=0
mem_heap_B=0
mem_heap_extra_B=0
mem_stacks_B=0
heap_tree=empty
#-----------
snapshot=1
#-----------
time=354
mem_heap_B=552
mem_heap_extra_B=16
mem_stacks_B=0
heap_tree=empty
#-----------
snapshot=2
#-----------
time=383
mem_heap_B=648
mem_heap_extra_B=136
mem_stacks_B=0
heap_tree=empty
#-----------
snapshot=3
#-----------
time=429
mem_heap_B=34805
mem_heap_extra_B=1755
mem_stacks_B=0
heap_tree=empty
#-----------
snapshot=4
#-----------
time=471
mem_heap_B=85772
mem_heap_extra_B=2156
mem_stacks_B=0
heap_tree=empty
#-----------
snapshot=5
#-----------
time=3391
mem_heap_B=85800
mem_heap_extra_B=2168
mem_stacks_B=0
heap_tree=empty
#-----------
snapshot=6
#-----------
time=3403
mem_heap_B=85772
mem_heap_extra_B=2156
mem_stacks_B=0
heap_tree=empty
#-----------
snapshot=7
#-----------
time=3454
mem_heap_B=85772
mem_heap_extra_B=2156
mem_stacks_B=0
heap_tree=detailed
n4: 85772 (heap allocation functions) malloc/new/new[], --alloc-fns, etc.
 n1: 65536 0x117326: ??? (in /usr/bin/mpiexec.hydra)
  n1: 65536 0x13792E: ??? (in /usr/bin/mpiexec.hydra)
   n1: 65536 0x115D79: ??? (in /usr/bin/mpiexec.hydra)
    n1: 65536 0x10EAC0: ??? (in /usr/bin/mpiexec.hydra)
     n0: 65536 0x52B0B95: (below main) (libc-start.c:310)
 n2: 16096 0x12AB4C: ??? (in /usr/bin/mpiexec.hydra)
  n1: 8048 0x110C8A: ??? (in /usr/bin/mpiexec.hydra)
   n1: 8048 0x112864: ??? (in /usr/bin/mpiexec.hydra)
    n1: 8048 0x12B893: ??? (in /usr/bin/mpiexec.hydra)
     n1: 8048 0x111038: ??? (in /usr/bin/mpiexec.hydra)
      n1: 8048 0x113F60: ??? (in /usr/bin/mpiexec.hydra)
       n1: 8048 0x10DB19: ??? (in /usr/bin/mpiexec.hydra)
        n0: 8048 0x52B0B95: (below main) (libc-start.c:310)
  n1: 8048 0x12ADF7: ??? (in /usr/bin/mpiexec.hydra)
   n1: 8048 0x12B367: ??? (in /usr/bin/mpiexec.hydra)
    n1: 8048 0x10E342: ??? (in /usr/bin/mpiexec.hydra)
     n0: 8048 0x52B0B95: (below main) (libc-start.c:310)
 n0: 2547 in 38 places, all below massif's threshold (1.00%)
 n2: 1593 0x532C9B8: strdup (strdup.c:42)
  n1: 943 0x1313BE: ??? (in /usr/bin/mpiexec.hydra)
   n1: 943 0x11C53A: ??? (in /usr/bin/mpiexec.hydra)
    n1: 943 0x1158F3: ??? (in /usr/bin/mpiexec.hydra)
     n1: 943 0x10E4AA: ??? (in /usr/bin/mpiexec.hydra)
      n0: 943 0x52B0B95: (below main) (libc-start.c:310)
  n0: 650 in 87 places, all below massif's threshold (1.00%)
#-----------
snapshot=8
#-----------
time=4247
mem_heap_B=85811
mem_heap_extra_B=2173
mem_stacks_B=0
heap_tree=empty
#-----------
snapshot=9
#-----------
time=4304
mem_heap_B=85772
mem_heap_extra_B=2156
mem_stacks_B=0
heap_tree=empty
#-----------
snapshot=10
#-----------
time=4345
mem_heap_B=85772
mem_heap_extra_B=2156
mem_stacks_B=0
heap_tree=empty
#-----------
snapshot=11
#-----------
time=5497
mem_heap_B=85814
mem_heap_extra_B=2170
mem_stacks_B=0
heap_tree=empty
#-----------
snapshot=12
#-----------
time=5555
mem_heap_B=85772
mem_heap_extra_B=2156
mem_stacks_B=0
heap_tree=empty
#-----------
snapshot=13
#-----------
time=5614
mem_heap_B=85800
mem_heap_extra_B=2168
mem_stacks_B=0
heap_tree=empty
#-----------
snapshot=14
#-----------
time=5659
mem_heap_B=85772
mem_heap_extra_B=2156
mem_stacks_B=0
heap_tree=detailed
n4: 85772 (heap allocation functions) malloc/new/new[], --alloc-fns, etc.
 n1: 65536 0x117326: ??? (in /usr/bin/mpiexec.hydra)
  n1: 65536 0x13792E: ??? (in /usr/bin/mpiexec.hydra)
   n1: 65536 0x115D79: ??? (in /usr/bin/mpiexec.hydra)
    n1: 65536 0x10EAC0: ??? (in /usr/bin/mpiexec.hydra)
     n0: 65536 0x52B0B95: (below main) (libc-start.c:310)
 n2: 16096 0x12AB4C: ??? (in /usr/bin/mpiexec.hydra)
  n1: 8048 0x110C8A: ??? (in /usr/bin/mpiexec.hydra)
   n1: 8048 0x112864: ??? (in /usr/bin/mpiexec.hydra)
    n1: 8048 0x12B893: ??? (in /usr/bin/mpiexec.hydra)
     n1: 8048 0x111038: ??? (in /usr/bin/mpiexec.hydra)
      n1: 8048 0x113F60: ??? (in /usr/bin/mpiexec.hydra)
       n1: 8048 0x10DB19: ??? (in /usr/bin/mpiexec.hydra)
        n0: 8048 0x52B0B95: (below main) (libc-start.c:310)
  n1: 8048 0x12ADF7: ??? (in /usr/bin/mpiexec.hydra)
   n1: 8048 0x12B367: ??? (in /usr/bin/mpiexec.hydra)
    n1: 8048 0x10E342: ??? (in /usr/bin/mpiexec.hydra)
     n0: 8048 0x52B0B95: (below main) (libc-start.c:310)
 n0: 2547 in 38 places, all below massif's threshold (1.00%)
 n2: 1593 0x532C9B8: strdup (strdup.c:42)
  n1: 943 0x1313BE: ??? (in /usr/bin/mpiexec.hydra)
   n1: 943 0x11C53A: ??? (in /usr/bin/mpiexec.hydra)
    n1: 943 0x1158F3: ??? (in /usr/bin/mpiexec.hydra)
     n1: 943 0x10E4AA: ??? (in /usr/bin/mpiexec.hydra)
      n0: 943 0x52B0B95: (below main) (libc-start.c:310)
  n0: 650 in 87 places, all below massif's threshold (1.00%)
#-----------
snapshot=15
#-----------
time=6137
mem_heap_B=85874
mem_heap_extra_B=2174
mem_stacks_B=0
heap_tree=empty
#-----------
snapshot=16
#-----------
time=6195
mem_heap_B=85772
mem_heap_extra_B=2156
mem_stacks_B=0
heap_tree=empty
#-----------
snapshot=17
#-----------
time=6292
mem_heap_B=85874
mem_heap_extra_B=2174
mem_stacks_B=0
heap_tree=empty
#-----------
snapshot=18
#-----------
time=6292
mem_heap_B=85772
mem_heap_extra_B=2156
mem_stacks_B=0
heap_tree=empty
#-----------
snapshot=19
#-----------
time=6737
mem_heap_B=85865
mem_heap_extra_B=2167
mem_stacks_B=0
heap_tree=empty
#-----------
snapshot=20
#-----------
time=6798
mem_heap_B=85772
mem_heap_extra_B=2156
mem_stacks_B=0
heap_tree=empty
#-----------
snapshot=21
#-----------
time=6888
mem_heap_B=85865
mem_heap_extra_B=2167
mem_stacks_B=0
heap_tree=empty
#-----------
snapshot=22
#-----------
time=6890
mem_heap_B=85772
mem_heap_extra_B=2156
mem_stacks_B=0
heap_tree=empty
#-----------
snapshot=23
#-----------
time=7084
mem_heap_B=85811
mem_heap_extra_B=2173
mem_stacks_B=0
heap_tree=empty
#-----------
snapshot=24
#-----------
time=7119
mem_heap_B=85772
mem_heap_extra_B=2156
mem_stacks_B=0
heap_tree=detailed
n4: 85772 (heap allocation functions) malloc/new/new[], --alloc-fns, etc.
 n1: 65536 0x117326: ??? (in /usr/bin/mpiexec.hydra)
  n1: 65536 0x13792E: ??? (in /usr/bin/mpiexec.hydra)
   n1: 65536 0x115D79: ??? (in /usr/bin/mpiexec.hydra)
    n1: 65536 0x10EAC0: ??? (in /usr/bin/mpiexec.hydra)
     n0: 65536 0x52B0B95: (below main) (libc-start.c:310)
 n2: 16096 0x12AB4C: ??? (in /usr/bin/mpiexec.hydra)
  n1: 8048 0x110C8A: ??? (in /usr/bin/mpiexec.hydra)
   n1: 8048 0x112864: ??? (in /usr/bin/mpiexec.hydra)
    n1: 8048 0x12B893: ??? (in /usr/bin/mpiexec.hydra)
     n1: 8048 0x111038: ??? (in /usr/bin/mpiexec.hydra)
      n1: 8048 0x113F60: ??? (in /usr/bin/mpiexec.hydra)
       n1: 8048 0x10DB19: ??? (in /usr/bin/mpiexec.hydra)
        n0: 8048 0x52B0B95: (below main) (libc-start.c:310)
  n1: 8048 0x12ADF7: ??? (in /usr/bin/mpiexec.hydra)
   n1: 8048 0x12B367: ??? (in /usr/bin/mpiexec.hydra)
    n1: 8048 0x10E342: ??? (in /usr/bin/mpiexec.hydra)
     n0: 8048 0x52B0B95: (below main) (libc-start.c:310)
 n0: 2547 in 38 places, all below massif's threshold (1.00%)
 n2: 1593 0x532C9B8: strdup (strdup.c:42)
  n1: 943 0x1313BE: ??? (in /usr/bin/mpiexec.hydra)
   n1: 943 0x11C53A: ??? (in /usr/bin/mpiexec.hydra)
    n1: 943 0x1158F3: ??? (in /usr/bin/mpiexec.hydra)
     n1: 943 0x10E4AA: ??? (in /usr/bin/mpiexec.hydra)
      n0: 943 0x52B0B95: (below main) (libc-start.c:310)
  n0: 650 in 87 places, all below massif's threshold (1.00%)
#-----------
snapshot=25
#-----------
time=7560
mem_heap_B=85981
mem_heap_extra_B=2179
mem_stacks_B=0
heap_tree=empty
#-----------
snapshot=26
#-----------
time=7611
mem_heap_B=85772
mem_heap_extra_B=2156
mem_stacks_B=0
heap_tree=empty
#-----------
snapshot=27
#-----------
time=7754
mem_heap_B=85980
mem_heap_extra_B=2164
mem_stacks_B=0
heap_tree=empty
#-----------
snapshot=28
#-----------
time=7755
mem_heap_B=85772
mem_heap_extra_B=2156
mem_stacks_B=0
heap_tree=empty
#-----------
snapshot=29
#-----------
time=9075
mem_heap_B=85814
mem_heap_extra_B=2170
mem_stacks_B=0
heap_tree=empty
#-----------
snapshot=30
#-----------
time=9123
mem_heap_B=85772
mem_heap_extra_B=2156
mem_stacks_B=0
heap_tree=empty
#-----------
snapshot=31
#-----------
time=9897
mem_heap_B=85874
mem_heap_extra_B=2174
mem_stacks_B=0
heap_tree=empty
#-----------
snapshot=32
#-----------
time=9959
mem_heap_B=85772
mem_heap_extra_B=2156
mem_stacks_B=0
heap_tree=empty
#-----------
snapshot=33
#-----------
time=10745
mem_heap_B=85865
mem_heap_extra_B=2167
mem_stacks_B=0
heap_tree=empty
#-----------
snapshot=34
#-----------
time=10804
mem_heap_B=85865
mem_heap_extra_B=2167
mem_stacks_B=0
heap_tree=empty
#-----------
snapshot=35
#-----------
time=10815
mem_heap_B=85772
mem_heap_extra_B=2156
mem_stacks_B=0
heap_tree=empty
#-----------
snapshot=36
#-----------
time=12117
mem_heap_B=85981
mem_heap_extra_B=2179
mem_stacks_B=0
heap_tree=empty
#-----------
snapshot=37
#-----------
time=12117
mem_heap_B=85772
mem_heap_extra_B=2156
mem_stacks_B=0
heap_tree=detailed
n4: 85772 (heap allocation functions) malloc/new/new[], --alloc-fns, etc.
 n1: 65536 0x117326: ??? (in /usr/bin/mpiexec.hydra)
  n1: 65536 0x13792E: ??? (in /usr/bin/mpiexec.hydra)
   n1: 65536 0x115D79: ??? (in /usr/bin/mpiexec.hydra)
    n1: 65536 0x10EAC0: ??? (in /usr/bin/mpiexec.hydra)
     n0: 65536 0x52B0B95: (below main) (libc-start.c:310)
 n2: 16096 0x12AB4C: ??? (in /usr/bin/mpiexec.hydra)
  n1: 8048 0x110C8A: ??? (in /usr/bin/mpiexec.hydra)
   n1: 8048 0x112864: ??? (in /usr/bin/mpiexec.hydra)
    n1: 8048 0x12B893: ??? (in /usr/bin/mpiexec.hydra)
     n1: 8048 0x111038: ??? (in /usr/bin/mpiexec.hydra)
      n1: 8048 0x113F60: ??? (in /usr/bin/mpiexec.hydra)
       n1: 8048 0x10DB19: ??? (in /usr/bin/mpiexec.hydra)
        n0: 8048 0x52B0B95: (below main) (libc-start.c:310)
  n1: 8048 0x12ADF7: ??? (in /usr/bin/mpiexec.hydra)
   n1: 8048 0x12B367: ??? (in /usr/bin/mpiexec.hydra)
    n1: 8048 0x10E342: ??? (in /usr/bin/mpiexec.hydra)
     n0: 8048 0x52B0B95: (below main) (libc-start.c:310)
 n0: 2547 in 38 places, all below massif's threshold (1.00%)
 n2: 1593 0x532C9B8: strdup (strdup.c:42)
  n1: 943 0x1313BE: ??? (in /usr/bin/mpiexec.hydra)
   n1: 943 0x11C53A: ??? (in /usr/bin/mpiexec.hydra)
    n1: 943 0x1158F3: ??? (in /usr/bin/mpiexec.hydra)
     n1: 943 0x10E4AA: ??? (in /usr/bin/mpiexec.hydra)
      n0: 943 0x52B0B95: (below main) (libc-start.c:310)
  n0: 650 in 87 places, all below massif's threshold (1.00%)
#-----------
snapshot=38
#-----------
time=12181
mem_heap_B=85981
mem_heap_extra_B=2179
mem_stacks_B=0
heap_tree=empty
#-----------
snapshot=39
#-----------
time=12187
mem_heap_B=85772
mem_heap_extra_B=2156
mem_stacks_B=0
heap_tree=empty
#-----------
snapshot=40
#-----------
time=12970
mem_heap_B=85854
mem_heap_extra_B=2178
mem_stacks_B=0
heap_tree=empty
#-----------
snapshot=41
#-----------
time=13015
mem_heap_B=85772
mem_heap_extra_B=2156
mem_stacks_B=0
heap_tree=empty
#-----------
snapshot=42
#-----------
time=13667
mem_heap_B=85822
mem_heap_extra_B=2178
mem_stacks_B=0
heap_tree=empty
#-----------
snapshot=43
#-----------
time=13668
mem_heap_B=85772
mem_heap_extra_B=2156
mem_stacks_B=0
heap_tree=empty
#-----------
snapshot=44
#-----------
time=18071
mem_heap_B=85821
mem_heap_extra_B=2179
mem_stacks_B=0
heap_tree=empty
#-----------
snapshot=45
#-----------
time=18102
mem_heap_B=85772
mem_heap_extra_B=2156
mem_stacks_B=0
heap_tree=empty
#-----------
snapshot=46
#-----------
time=18147
mem_heap_B=85772
mem_heap_extra_B=2156
mem_stacks_B=0
heap_tree=empty
#-----------
snapshot=47
#-----------
time=18519
mem_heap_B=85804
mem_heap_extra_B=2164
mem_stacks_B=0
heap_tree=empty
#-----------
snapshot=48
#-----------
time=18525
mem_heap_B=216281
mem_heap_extra_B=2111
mem_stacks_B=0
heap_tree=peak
n4: 216281 (heap allocation functions) malloc/new/new[], --alloc-fns, etc.
 n1: 131120 0x12FB35: ??? (in /usr/bin/mpiexec.hydra)
  n1: 131120 0x13CDE8: ??? (in /usr/bin/mpiexec.hydra)
   n1: 131120 0x13792E: ??? (in /usr/bin/mpiexec.hydra)
    n1: 131120 0x132814: ??? (in /usr/bin/mpiexec.hydra)
     n1: 131120 0x13253B: ??? (in /usr/bin/mpiexec.hydra)
      n1: 131120 0x115EC2: ??? (in /usr/bin/mpiexec.hydra)
       n1: 131120 0x10EAC0: ??? (in /usr/bin/mpiexec.hydra)
        n0: 131120 0x52B0B95: (below main) (libc-start.c:310)
 n1: 65536 0x117326: ??? (in /usr/bin/mpiexec.hydra)
  n1: 65536 0x13792E: ??? (in /usr/bin/mpiexec.hydra)
   n1: 65536 0x115D79: ??? (in /usr/bin/mpiexec.hydra)
    n1: 65536 0x10EAC0: ??? (in /usr/bin/mpiexec.hydra)
     n0: 65536 0x52B0B95: (below main) (libc-start.c:310)
 n2: 16096 0x12AB4C: ??? (in /usr/bin/mpiexec.hydra)
  n1: 8048 0x110C8A: ??? (in /usr/bin/mpiexec.hydra)
   n1: 8048 0x112864: ??? (in /usr/bin/mpiexec.hydra)
    n1: 8048 0x12B893: ??? (in /usr/bin/mpiexec.hydra)
     n1: 8048 0x111038: ??? (in /usr/bin/mpiexec.hydra)
      n1: 8048 0x113F60: ??? (in /usr/bin/mpiexec.hydra)
       n1: 8048 0x10DB19: ??? (in /usr/bin/mpiexec.hydra)
        n0: 8048 0x52B0B95: (below main) (libc-start.c:310)
  n1: 8048 0x12ADF7: ??? (in /usr/bin/mpiexec.hydra)
   n1: 8048 0x12B367: ??? (in /usr/bin/mpiexec.hydra)
    n1: 8048 0x10E342: ??? (in /usr/bin/mpiexec.hydra)
     n0: 8048 0x52B0B95: (below main) (libc-start.c:310)
 n0: 3529 in 40 places, all below massif's threshold (1.00%)
#-----------
snapshot=49
#-----------
time=18530
mem_heap_B=214587
mem_heap_extra_B=693
mem_stacks_B=0
heap_tree=empty
#-----------
snapshot=50
#-----------
time=18530
mem_heap_B=214521
mem_heap_extra_B=671
mem_stacks_B=0
heap_tree=empty
#-----------
snapshot=51
#-----------
time=18530
mem_heap_B=214499
mem_heap_extra_B=653
mem_stacks_B=0
heap_tree=empty
#-----------
snapshot=52
#-----------
time=18530
mem_heap_B=214388
mem_heap_extra_B=644
mem_stacks_B=0
heap_tree=empty
#-----------
snapshot=53
#-----------
time=18530
mem_heap_B=214370
mem_heap_extra_B=622
mem_stacks_B=0
heap_tree=empty
#-----------
snapshot=54
#-----------
time=18530
mem_heap_B=214368
mem_heap_extra_B=600
mem_stacks_B=0
heap_tree=detailed
n4: 214368 (heap allocation functions) malloc/new/new[], --alloc-fns, etc.
 n1: 131120 0x12FB35: ??? (in /usr/bin/mpiexec.hydra)
  n1: 131120 0x13CDE8: ??? (in /usr/bin/mpiexec.hydra)
   n1: 131120 0x13792E: ??? (in /usr/bin/mpiexec.hydra)
    n1: 131120 0x132814: ??? (in /usr/bin/mpiexec.hydra)
     n1: 131120 0x13253B: ??? (in /usr/bin/mpiexec.hydra)
      n1: 131120 0x115EC2: ??? (in /usr/bin/mpiexec.hydra)
       n1: 131120 0x10EAC0: ??? (in /usr/bin/mpiexec.hydra)
        n0: 131120 0x52B0B95: (below main) (libc-start.c:310)
 n1: 65536 0x117326: ??? (in /usr/bin/mpiexec.hydra)
  n1: 65536 0x13792E: ??? (in /usr/bin/mpiexec.hydra)
   n1: 65536 0x115D79: ??? (in /usr/bin/mpiexec.hydra)
    n1: 65536 0x10EAC0: ??? (in /usr/bin/mpiexec.hydra)
     n0: 65536 0x52B0B95: (below main) (libc-start.c:310)
 n2: 16096 0x12AB4C: ??? (in /usr/bin/mpiexec.hydra)
  n1: 8048 0x110C8A: ??? (in /usr/bin/mpiexec.hydra)
   n1: 8048 0x112864: ??? (in /usr/bin/mpiexec.hydra)
    n1: 8048 0x12B893: ??? (in /usr/bin/mpiexec.hydra)
     n1: 8048 0x111038: ??? (in /usr/bin/mpiexec.hydra)
      n1: 8048 0x113F60: ??? (in /usr/bin/mpiexec.hydra)
       n1: 8048 0x10DB19: ??? (in /usr/bin/mpiexec.hydra)
        n0: 8048 0x52B0B95: (below main) (libc-start.c:310)
  n1: 8048 0x12ADF7: ??? (in /usr/bin/mpiexec.hydra)
   n1: 8048 0x12B367: ??? (in /usr/bin/mpiexec.hydra)
    n1: 8048 0x10E342: ??? (in /usr/bin/mpiexec.hydra)
     n0: 8048 0x52B0B95: (below main) (libc-start.c:310)
 n0: 1616 in 40 places, all below massif's threshold (1.00%)
#-----------
snapshot=55
#-----------
time=18530
mem_heap_B=214348
mem_heap_extra_B=580
mem_stacks_B=0
heap_tree=empty
#-----------
snapshot=56
#-----------
time=18530
mem_heap_B=214346
mem_heap_extra_B=558
mem_stacks_B=0
heap_tree=empty
#-----------
snapshot=57
#-----------
time=18530
mem_heap_B=214309
mem_heap_extra_B=539
mem_stacks_B=0
heap_tree=empty
#-----------
snapshot=58
#-----------
time=18530
mem_heap_B=214290
mem_heap_extra_B=518
mem_stacks_B=0
heap_tree=empty
#-----------
snapshot=59
#-----------
time=18530
mem_heap_B=214288
mem_heap_extra_B=496
mem_stacks_B=0
heap_tree=empty
#-----------
snapshot=60
#-----------
time=18530
mem_heap_B=214281
mem_heap_extra_B=479
mem_stacks_B=0
heap_tree=empty
#-----------
snapshot=61
#-----------
time=18530
mem_heap_B=214267
mem_heap_extra_B=469
mem_stacks_B=0
heap_tree=empty
#-----------
snapshot=62
#-----------
time=18530
mem_heap_B=214265
mem_heap_extra_B=447
mem_stacks_B=0
heap_tree=empty
#-----------
snapshot=63
#-----------
time=18530
mem_heap_B=214247
mem_heap_extra_B=425
mem_stacks_B=0
heap_tree=empty
#-----------
snapshot=64
#-----------
time=18530
mem_heap_B=214245
mem_heap_extra_B=403
mem_stacks_B=0
heap_tree=detailed
n4: 214245 (heap allocation functions) malloc/new/new[], --alloc-fns, etc.
 n1: 131120 0x12FB35: ??? (in /usr/bin/mpiexec.hydra)
  n1: 131120 0x13CDE8: ??? (in /usr/bin/mpiexec.hydra)
   n1: 131120 0x13792E: ??? (in /usr/bin/mpiexec.hydra)
    n1: 131120 0x132814: ??? (in /usr/bin/mpiexec.hydra)
     n1: 131120 0x13253B: ??? (in /usr/bin/mpiexec.hydra)
      n1: 131120 0x115EC2: ??? (in /usr/bin/mpiexec.hydra)
       n1: 131120 0x10EAC0: ??? (in /usr/bin/mpiexec.hydra)
        n0: 131120 0x52B0B95: (below main) (libc-start.c:310)
 n1: 65536 0x117326: ??? (in /usr/bin/mpiexec.hydra)
  n1: 65536 0x13792E: ??? (in /usr/bin/mpiexec.hydra)
   n1: 65536 0x115D79: ??? (in /usr/bin/mpiexec.hydra)
    n1: 65536 0x10EAC0: ??? (in /usr/bin/mpiexec.hydra)
     n0: 65536 0x52B0B95: (below main) (libc-start.c:310)
 n2: 16096 0x12AB4C: ??? (in /usr/bin/mpiexec.hydra)
  n1: 8048 0x110C8A: ??? (in /usr/bin/mpiexec.hydra)
   n1: 8048 0x112864: ??? (in /usr/bin/mpiexec.hydra)
    n1: 8048 0x12B893: ??? (in /usr/bin/mpiexec.hydra)
     n1: 8048 0x111038: ??? (in /usr/bin/mpiexec.hydra)
      n1: 8048 0x113F60: ??? (in /usr/bin/mpiexec.hydra)
       n1: 8048 0x10DB19: ??? (in /usr/bin/mpiexec.hydra)
        n0: 8048 0x52B0B95: (below main) (libc-start.c:310)
  n1: 8048 0x12ADF7: ??? (in /usr/bin/mpiexec.hydra)
   n1: 8048 0x12B367: ??? (in /usr/bin/mpiexec.hydra)
    n1: 8048 0x10E342: ??? (in /usr/bin/mpiexec.hydra)
     n0: 8048 0x52B0B95: (below main) (libc-start.c:310)
 n0: 1493 in 40 places, all below massif's threshold (1.00%)
#-----------
snapshot=65
#-----------
time=18530
mem_heap_B=214228
mem_heap_extra_B=380
mem_stacks_B=0
heap_tree=empty
#-----------
snapshot=66
#-----------
time=18530
mem_heap_B=214226
mem_heap_extra_B=358
mem_stacks_B=0
heap_tree=empty
#-----------
snapshot=67
#-----------
time=18530
mem_heap_B=214214
mem_heap_extra_B=346
mem_stacks_B=0
heap_tree=empty
#-----------
snapshot=68
#-----------
time=18530
mem_heap_B=214154
mem_heap_extra_B=334
mem_stacks_B=0
heap_tree=empty
#-----------
snapshot=69
#-----------
time=18530
mem_heap_B=214142
mem_heap_extra_B=322
mem_stacks_B=0
heap_tree=empty
#-----------
snapshot=70
#-----------
time=18530
mem_heap_B=214140
mem_heap_extra_B=300
mem_stacks_B=0
heap_tree=empty
#-----------
snapshot=71
#-----------
time=18530
mem_heap_B=214127
mem_heap_extra_B=289
mem_stacks_B=0
heap_tree=empty
#-----------
snapshot=72
#-----------
time=18530
mem_heap_B=213711
mem_heap_extra_B=281
mem_stacks_B=0
heap_tree=empty
#-----------
snapshot=73
#-----------
time=18530
mem_heap_B=213679
mem_heap_extra_B=273
mem_stacks_B=0
heap_tree=empty
#-----------
snapshot=74
#-----------
time=18530
mem_heap_B=213647
mem_heap_extra_B=265
mem_stacks_B=0
heap_tree=detailed
n4: 213647 (heap allocation functions) malloc/new/new[], --alloc-fns, etc.
 n1: 131120 0x12FB35: ??? (in /usr/bin/mpiexec.hydra)
  n1: 131120 0x13CDE8: ??? (in /usr/bin/mpiexec.hydra)
   n1: 131120 0x13792E: ??? (in /usr/bin/mpiexec.hydra)
    n1: 131120 0x132814: ??? (in /usr/bin/mpiexec.hydra)
     n1: 131120 0x13253B: ??? (in /usr/bin/mpiexec.hydra)
      n1: 131120 0x115EC2: ??? (in /usr/bin/mpiexec.hydra)
       n1: 131120 0x10EAC0: ??? (in /usr/bin/mpiexec.hydra)
        n0: 131120 0x52B0B95: (below main) (libc-start.c:310)
 n1: 65536 0x117326: ??? (in /usr/bin/mpiexec.hydra)
  n1: 65536 0x13792E: ??? (in /usr/bin/mpiexec.hydra)
   n1: 65536 0x115D79: ??? (in /usr/bin/mpiexec.hydra)
    n1: 65536 0x10EAC0: ??? (in /usr/bin/mpiexec.hydra)
     n0: 65536 0x52B0B95: (below main) (libc-start.c:310)
 n2: 16096 0x12AB4C: ??? (in /usr/bin/mpiexec.hydra)
  n1: 8048 0x110C8A: ??? (in /usr/bin/mpiexec.hydra)
   n1: 8048 0x112864: ??? (in /usr/bin/mpiexec.hydra)
    n1: 8048 0x12B893: ??? (in /usr/bin/mpiexec.hydra)
     n1: 8048 0x111038: ??? (in /usr/bin/mpiexec.hydra)
      n1: 8048 0x113F60: ??? (in /usr/bin/mpiexec.hydra)
       n1: 8048 0x10DB19: ??? (in /usr/bin/mpiexec.hydra)
        n0: 8048 0x52B0B95: (below main) (libc-start.c:310)
  n1: 8048 0x12ADF7: ??? (in /usr/bin/mpiexec.hydra)
   n1: 8048 0x12B367: ??? (in /usr/bin/mpiexec.hydra)
    n1: 8048 0x10E342: ??? (in /usr/bin/mpiexec.hydra)
     n0: 8048 0x52B0B95: (below main) (libc-start.c:310)
 n0: 895 in 40 places, all below massif's threshold (1.00%)
#-----------
snapshot=75
#-----------
time=18530
mem_heap_B=213634
mem_heap_extra_B=254
mem_stacks_B=0
heap_tree=empty
#-----------
snapshot=76
#-----------
time=18530
mem_heap_B=213574
mem_heap_extra_B=242
mem_stacks_B=0
heap_tree=empty
#-----------
snapshot=77
#-----------
time=18530
mem_heap_B=205526
mem_heap_extra_B=234
mem_stacks_B=0
heap_tree=empty
#-----------
snapshot=78
#-----------
time=18530
mem_heap_B=205446
mem_heap_extra_B=226
mem_stacks_B=0
heap_tree=empty
#-----------
snapshot=79
#-----------
time=18531
mem_heap_B=205433
mem_heap_extra_B=215
mem_stacks_B=0
heap_tree=empty
#-----------
snapshot=80
#-----------
time=18531
mem_heap_B=205373
mem_heap_extra_B=203
mem_stacks_B=0
heap_tree=empty
#-----------
snapshot=81
#-----------
time=18531
mem_heap_B=197325
mem_heap_extra_B=195
mem_stacks_B=0
heap_tree=empty
#-----------
snapshot=82
#-----------
time=18531
mem_heap_B=131765
mem_heap_extra_B=179
mem_stacks_B=0
heap_tree=empty
#-----------
snapshot=83
#-----------
time=18531
mem_heap_B=66205
mem_heap_extra_B=163
mem_stacks_B=0
heap_tree=empty
#-----------
snapshot=84
#-----------
time=18531
mem_heap_B=66184
mem_heap_extra_B=144
mem_stacks_B=0
heap_tree=detailed
n2: 66184 (heap allocation functions) malloc/new/new[], --alloc-fns, etc.
 n1: 65536 0x117326: ??? (in /usr/bin/mpiexec.hydra)
  n1: 65536 0x13792E: ??? (in /usr/bin/mpiexec.hydra)
   n1: 65536 0x115D79: ??? (in /usr/bin/mpiexec.hydra)
    n1: 65536 0x10EAC0: ??? (in /usr/bin/mpiexec.hydra)
     n0: 65536 0x52B0B95: (below main) (libc-start.c:310)
 n0: 648 in 42 places, all below massif's threshold (1.00%)
#-----------
snapshot=85
#-----------
time=18536
mem_heap_B=66176
mem_heap_extra_B=128
mem_stacks_B=0
heap_tree=empty
#-----------
snapshot=86
#-----------
time=18536
mem_heap_B=66160
mem_heap_extra_B=120
mem_stacks_B=0
heap_tree=empty
#-----------
snapshot=87
#-----------
time=18536
mem_heap_B=66152
mem_heap_extra_B=104
mem_stacks_B=0
heap_tree=empty
#-----------
snapshot=88
#-----------
time=18536
mem_heap_B=66136
mem_heap_extra_B=96
mem_stacks_B=0
heap_tree=empty
#-----------
snapshot=89
#-----------
time=18536
mem_heap_B=66008
mem_heap_extra_B=88
mem_stacks_B=0
heap_tree=empty
#-----------
snapshot=90
#-----------
time=18536
mem_heap_B=65992
mem_heap_extra_B=80
mem_stacks_B=0
heap_tree=empty
#-----------
snapshot=91
#-----------
time=18536
mem_heap_B=65984
mem_heap_extra_B=64
mem_stacks_B=0
heap_tree=empty
#-----------
snapshot=92
#-----------
time=18536
mem_heap_B=65968
mem_heap_extra_B=56
mem_stacks_B=0
heap_tree=empty
#-----------
snapshot=93
#-----------
time=18536
mem_heap_B=65840
mem_heap_extra_B=48
mem_stacks_B=0
heap_tree=empty
#-----------
snapshot=94
#-----------
time=18536
mem_heap_B=65824
mem_heap_extra_B=40
mem_stacks_B=0
heap_tree=detailed
n2: 65824 (heap allocation functions) malloc/new/new[], --alloc-fns, etc.
 n1: 65536 0x117326: ??? (in /usr/bin/mpiexec.hydra)
  n1: 65536 0x13792E: ??? (in /usr/bin/mpiexec.hydra)
   n1: 65536 0x115D79: ??? (in /usr/bin/mpiexec.hydra)
    n1: 65536 0x10EAC0: ??? (in /usr/bin/mpiexec.hydra)
     n0: 65536 0x52B0B95: (below main) (libc-start.c:310)
 n0: 288 in 42 places, all below massif's threshold (1.00%)
#-----------
snapshot=95
#-----------
time=18536
mem_heap_B=65696
mem_heap_extra_B=32
mem_stacks_B=0
heap_tree=empty
#-----------
snapshot=96
#-----------
time=18536
mem_heap_B=65680
mem_heap_extra_B=24
mem_stacks_B=0
heap_tree=empty
#-----------
snapshot=97
#-----------
time=18536
mem_heap_B=65552
mem_heap_extra_B=16
mem_stacks_B=0
heap_tree=empty
#-----------
snapshot=98
#-----------
time=18536
mem_heap_B=65536
mem_heap_extra_B=8
mem_stacks_B=0
heap_tree=empty
