CMDLINE mpirun -np 8 ./fenics-test
MEM 0.914062 1591728188.4228
MEM 185.937500 1591728188.5274
CHLD 0 21.628906 1591728188.5302
CHLD 1 22.203125 1591728188.5303
CHLD 2 21.882812 1591728188.5303
CHLD 3 22.300781 1591728188.5304
CHLD 4 22.140625 1591728188.5305
CHLD 5 20.734375 1591728188.5305
CHLD 6 22.285156 1591728188.5306
CHLD 7 19.617188 1591728188.5306
MEM 197.003906 1591728188.6340
CHLD 0 22.285156 1591728188.6366
CHLD 1 22.707031 1591728188.6367
CHLD 2 22.406250 1591728188.6367
CHLD 3 22.824219 1591728188.6368
CHLD 4 22.664062 1591728188.6368
CHLD 5 21.953125 1591728188.6369
CHLD 6 23.644531 1591728188.6369
CHLD 7 21.953125 1591728188.6370
