desc: --massif-out-file=massif-report.txt --time-unit=ms
cmd: mpirun -np 4 ./dealii-test
time_unit: ms
#-----------
snapshot=0
#-----------
time=0
mem_heap_B=0
mem_heap_extra_B=0
mem_stacks_B=0
heap_tree=empty
#-----------
snapshot=1
#-----------
time=425
mem_heap_B=552
mem_heap_extra_B=16
mem_stacks_B=0
heap_tree=empty
#-----------
snapshot=2
#-----------
time=429
mem_heap_B=1696
mem_heap_extra_B=40
mem_stacks_B=0
heap_tree=empty
#-----------
snapshot=3
#-----------
time=433
mem_heap_B=1879
mem_heap_extra_B=33
mem_stacks_B=0
heap_tree=empty
#-----------
snapshot=4
#-----------
time=437
mem_heap_B=33104
mem_heap_extra_B=40
mem_stacks_B=0
heap_tree=empty
#-----------
snapshot=5
#-----------
time=444
mem_heap_B=33656
mem_heap_extra_B=56
mem_stacks_B=0
heap_tree=empty
#-----------
snapshot=6
#-----------
time=448
mem_heap_B=37872
mem_heap_extra_B=80
mem_stacks_B=0
heap_tree=detailed
n4: 37872 (heap allocation functions) malloc/new/new[], --alloc-fns, etc.
 n1: 32816 0x536E9B4: opendir (opendir.c:216)
  n1: 32816 0x5683181: ??? (in /usr/lib/x86_64-linux-gnu/libnuma.so.1.0.0)
   n1: 32816 0x40106EA: _dl_init (dl-init.c:58)
    n1: 32816 0x40010C8: ??? (in /lib/x86_64-linux-gnu/ld-2.27.so)
     n1: 32816 0x2: ???
      n1: 32816 0x1FFF000D81: ???
       n1: 32816 0x1FFF000D88: ???
        n1: 32816 0x1FFF000D8C: ???
         n0: 32816 0x1FFF000D8E: ???
 n1: 4096 0x530D18A: _IO_file_doallocate (filedoalloc.c:101)
  n1: 4096 0x531D377: _IO_doallocbuf (genops.c:365)
   n1: 4096 0x531C252: _IO_file_underflow@@GLIBC_2.2.5 (fileops.c:495)
    n2: 4096 0x530ED46: getdelim (iogetdelim.c:73)
     n1: 4096 0x5683F09: numa_node_size64 (in /usr/lib/x86_64-linux-gnu/libnuma.so.1.0.0)
      n1: 4096 0x56831F3: ??? (in /usr/lib/x86_64-linux-gnu/libnuma.so.1.0.0)
       n1: 4096 0x40106EA: _dl_init (dl-init.c:58)
        n1: 4096 0x40010C8: ??? (in /lib/x86_64-linux-gnu/ld-2.27.so)
         n1: 4096 0x2: ???
          n1: 4096 0x1FFF000D81: ???
           n1: 4096 0x1FFF000D88: ???
            n1: 4096 0x1FFF000D8C: ???
             n0: 4096 0x1FFF000D8E: ???
     n0: 0 in 1 place, below massif's threshold (1.00%)
 n2: 552 0x530DE48: fopen@@GLIBC_2.2.5 (iofopen.c:65)
  n1: 552 0x5683EC1: numa_node_size64 (in /usr/lib/x86_64-linux-gnu/libnuma.so.1.0.0)
   n1: 552 0x56831F3: ??? (in /usr/lib/x86_64-linux-gnu/libnuma.so.1.0.0)
    n1: 552 0x40106EA: _dl_init (dl-init.c:58)
     n1: 552 0x40010C8: ??? (in /lib/x86_64-linux-gnu/ld-2.27.so)
      n1: 552 0x2: ???
       n1: 552 0x1FFF000D81: ???
        n1: 552 0x1FFF000D88: ???
         n1: 552 0x1FFF000D8C: ???
          n0: 552 0x1FFF000D8E: ???
  n0: 0 in 1 place, below massif's threshold (1.00%)
 n0: 408 in 4 places, all below massif's threshold (1.00%)
#-----------
snapshot=7
#-----------
time=451
mem_heap_B=2344
mem_heap_extra_B=176
mem_stacks_B=0
heap_tree=empty
#-----------
snapshot=8
#-----------
time=454
mem_heap_B=648
mem_heap_extra_B=136
mem_stacks_B=0
heap_tree=empty
#-----------
snapshot=9
#-----------
time=458
mem_heap_B=669
mem_heap_extra_B=155
mem_stacks_B=0
heap_tree=empty
#-----------
snapshot=10
#-----------
time=463
mem_heap_B=8717
mem_heap_extra_B=163
mem_stacks_B=0
heap_tree=empty
#-----------
snapshot=11
#-----------
time=467
mem_heap_B=8799
mem_heap_extra_B=201
mem_stacks_B=0
heap_tree=empty
#-----------
snapshot=12
#-----------
time=471
mem_heap_B=8748
mem_heap_extra_B=204
mem_stacks_B=0
heap_tree=empty
#-----------
snapshot=13
#-----------
time=474
mem_heap_B=8856
mem_heap_extra_B=312
mem_stacks_B=0
heap_tree=empty
#-----------
snapshot=14
#-----------
time=479
mem_heap_B=8904
mem_heap_extra_B=320
mem_stacks_B=0
heap_tree=empty
#-----------
snapshot=15
#-----------
time=483
mem_heap_B=9841
mem_heap_extra_B=1303
mem_stacks_B=0
heap_tree=empty
#-----------
snapshot=16
#-----------
time=485
mem_heap_B=18134
mem_heap_extra_B=1418
mem_stacks_B=0
heap_tree=empty
#-----------
snapshot=17
#-----------
time=488
mem_heap_B=18568
mem_heap_extra_B=1520
mem_stacks_B=0
heap_tree=empty
#-----------
snapshot=18
#-----------
time=492
mem_heap_B=26665
mem_heap_extra_B=1599
mem_stacks_B=0
heap_tree=empty
#-----------
snapshot=19
#-----------
time=496
mem_heap_B=34827
mem_heap_extra_B=2045
mem_stacks_B=0
heap_tree=empty
#-----------
snapshot=20
#-----------
time=498
mem_heap_B=42933
mem_heap_extra_B=2179
mem_stacks_B=0
heap_tree=detailed
n8: 42933 (heap allocation functions) malloc/new/new[], --alloc-fns, etc.
 n2: 16096 0x12AB4C: ??? (in /usr/bin/mpiexec.hydra)
  n1: 8048 0x110C8A: ??? (in /usr/bin/mpiexec.hydra)
   n1: 8048 0x112864: ??? (in /usr/bin/mpiexec.hydra)
    n1: 8048 0x12B893: ??? (in /usr/bin/mpiexec.hydra)
     n1: 8048 0x111038: ??? (in /usr/bin/mpiexec.hydra)
      n1: 8048 0x113F60: ??? (in /usr/bin/mpiexec.hydra)
       n1: 8048 0x10DB19: ??? (in /usr/bin/mpiexec.hydra)
        n0: 8048 0x52B0B95: (below main) (libc-start.c:310)
  n1: 8048 0x12ADF7: ??? (in /usr/bin/mpiexec.hydra)
   n1: 8048 0x12B367: ??? (in /usr/bin/mpiexec.hydra)
    n1: 8048 0x10E342: ??? (in /usr/bin/mpiexec.hydra)
     n0: 8048 0x52B0B95: (below main) (libc-start.c:310)
 n1: 8000 0x11A49C: ??? (in /usr/bin/mpiexec.hydra)
  n1: 8000 0x115712: ??? (in /usr/bin/mpiexec.hydra)
   n1: 8000 0x10E4AA: ??? (in /usr/bin/mpiexec.hydra)
    n0: 8000 0x52B0B95: (below main) (libc-start.c:310)
 n1: 8000 0x11BAE5: ??? (in /usr/bin/mpiexec.hydra)
  n1: 8000 0x1158F3: ??? (in /usr/bin/mpiexec.hydra)
   n1: 8000 0x10E4AA: ??? (in /usr/bin/mpiexec.hydra)
    n0: 8000 0x52B0B95: (below main) (libc-start.c:310)
 n1: 8000 0x11BBCE: ??? (in /usr/bin/mpiexec.hydra)
  n1: 8000 0x1158F3: ??? (in /usr/bin/mpiexec.hydra)
   n1: 8000 0x10E4AA: ??? (in /usr/bin/mpiexec.hydra)
    n0: 8000 0x52B0B95: (below main) (libc-start.c:310)
 n1: 965 0x532C9B8: strdup (strdup.c:42)
  n0: 965 in 52 places, all below massif's threshold (1.00%)
 n0: 832 in 24 places, all below massif's threshold (1.00%)
 n1: 536 0x5683A51: numa_bitmask_alloc (in /usr/lib/x86_64-linux-gnu/libnuma.so.1.0.0)
  n0: 536 in 8 places, all below massif's threshold (1.00%)
 n1: 504 0x12D3EB: ??? (in /usr/bin/mpiexec.hydra)
  n2: 504 0x12D5B3: ??? (in /usr/bin/mpiexec.hydra)
   n1: 480 0x12D8EC: ??? (in /usr/bin/mpiexec.hydra)
    n1: 480 0x12DAFD: ??? (in /usr/bin/mpiexec.hydra)
     n1: 480 0x10E272: ??? (in /usr/bin/mpiexec.hydra)
      n0: 480 0x52B0B95: (below main) (libc-start.c:310)
   n0: 24 in 1 place, below massif's threshold (1.00%)
#-----------
snapshot=21
#-----------
time=500
mem_heap_B=35091
mem_heap_extra_B=2317
mem_stacks_B=0
heap_tree=empty
#-----------
snapshot=22
#-----------
time=502
mem_heap_B=35724
mem_heap_extra_B=2628
mem_stacks_B=0
heap_tree=empty
#-----------
snapshot=23
#-----------
time=504
mem_heap_B=35868
mem_heap_extra_B=2908
mem_stacks_B=0
heap_tree=empty
#-----------
snapshot=24
#-----------
time=506
mem_heap_B=28397
mem_heap_extra_B=2907
mem_stacks_B=0
heap_tree=empty
#-----------
snapshot=25
#-----------
time=508
mem_heap_B=28427
mem_heap_extra_B=2949
mem_stacks_B=0
heap_tree=empty
#-----------
snapshot=26
#-----------
time=510
mem_heap_B=28645
mem_heap_extra_B=3355
mem_stacks_B=0
heap_tree=empty
#-----------
snapshot=27
#-----------
time=524
mem_heap_B=28629
mem_heap_extra_B=3347
mem_stacks_B=0
heap_tree=empty
#-----------
snapshot=28
#-----------
time=526
mem_heap_B=20448
mem_heap_extra_B=2752
mem_stacks_B=0
heap_tree=empty
#-----------
snapshot=29
#-----------
time=539
mem_heap_B=20496
mem_heap_extra_B=2760
mem_stacks_B=0
heap_tree=empty
#-----------
snapshot=30
#-----------
time=541
mem_heap_B=20699
mem_heap_extra_B=2837
mem_stacks_B=0
heap_tree=empty
#-----------
snapshot=31
#-----------
time=543
mem_heap_B=86227
mem_heap_extra_B=2853
mem_stacks_B=0
heap_tree=empty
#-----------
snapshot=32
#-----------
time=604
mem_heap_B=86283
mem_heap_extra_B=2869
mem_stacks_B=0
heap_tree=empty
#-----------
snapshot=33
#-----------
time=606
mem_heap_B=610687
mem_heap_extra_B=2953
mem_stacks_B=0
heap_tree=detailed
n4: 610687 (heap allocation functions) malloc/new/new[], --alloc-fns, etc.
 n1: 524288 0x117F90: ??? (in /usr/bin/mpiexec.hydra)
  n1: 524288 0x13792E: ??? (in /usr/bin/mpiexec.hydra)
   n1: 524288 0x115D79: ??? (in /usr/bin/mpiexec.hydra)
    n1: 524288 0x10EAC0: ??? (in /usr/bin/mpiexec.hydra)
     n0: 524288 0x52B0B95: (below main) (libc-start.c:310)
 n1: 65536 0x117326: ??? (in /usr/bin/mpiexec.hydra)
  n1: 65536 0x13792E: ??? (in /usr/bin/mpiexec.hydra)
   n1: 65536 0x115D79: ??? (in /usr/bin/mpiexec.hydra)
    n1: 65536 0x10EAC0: ??? (in /usr/bin/mpiexec.hydra)
     n0: 65536 0x52B0B95: (below main) (libc-start.c:310)
 n2: 16096 0x12AB4C: ??? (in /usr/bin/mpiexec.hydra)
  n1: 8048 0x110C8A: ??? (in /usr/bin/mpiexec.hydra)
   n1: 8048 0x112864: ??? (in /usr/bin/mpiexec.hydra)
    n1: 8048 0x12B893: ??? (in /usr/bin/mpiexec.hydra)
     n1: 8048 0x111038: ??? (in /usr/bin/mpiexec.hydra)
      n1: 8048 0x113F60: ??? (in /usr/bin/mpiexec.hydra)
       n1: 8048 0x10DB19: ??? (in /usr/bin/mpiexec.hydra)
        n0: 8048 0x52B0B95: (below main) (libc-start.c:310)
  n1: 8048 0x12ADF7: ??? (in /usr/bin/mpiexec.hydra)
   n1: 8048 0x12B367: ??? (in /usr/bin/mpiexec.hydra)
    n1: 8048 0x10E342: ??? (in /usr/bin/mpiexec.hydra)
     n0: 8048 0x52B0B95: (below main) (libc-start.c:310)
 n0: 4767 in 39 places, all below massif's threshold (1.00%)
#-----------
snapshot=34
#-----------
time=608
mem_heap_B=611719
mem_heap_extra_B=2937
mem_stacks_B=0
heap_tree=empty
#-----------
snapshot=35
#-----------
time=610
mem_heap_B=611832
mem_heap_extra_B=3056
mem_stacks_B=0
heap_tree=empty
#-----------
snapshot=36
#-----------
time=612
mem_heap_B=87323
mem_heap_extra_B=2869
mem_stacks_B=0
heap_tree=empty
#-----------
snapshot=37
#-----------
time=615
mem_heap_B=616923
mem_heap_extra_B=3141
mem_stacks_B=0
heap_tree=peak
n4: 616923 (heap allocation functions) malloc/new/new[], --alloc-fns, etc.
 n1: 524288 0x117F90: ??? (in /usr/bin/mpiexec.hydra)
  n1: 524288 0x13792E: ??? (in /usr/bin/mpiexec.hydra)
   n1: 524288 0x115D79: ??? (in /usr/bin/mpiexec.hydra)
    n1: 524288 0x10EAC0: ??? (in /usr/bin/mpiexec.hydra)
     n0: 524288 0x52B0B95: (below main) (libc-start.c:310)
 n1: 65536 0x117326: ??? (in /usr/bin/mpiexec.hydra)
  n1: 65536 0x13792E: ??? (in /usr/bin/mpiexec.hydra)
   n1: 65536 0x115D79: ??? (in /usr/bin/mpiexec.hydra)
    n1: 65536 0x10EAC0: ??? (in /usr/bin/mpiexec.hydra)
     n0: 65536 0x52B0B95: (below main) (libc-start.c:310)
 n2: 16096 0x12AB4C: ??? (in /usr/bin/mpiexec.hydra)
  n1: 8048 0x110C8A: ??? (in /usr/bin/mpiexec.hydra)
   n1: 8048 0x112864: ??? (in /usr/bin/mpiexec.hydra)
    n1: 8048 0x12B893: ??? (in /usr/bin/mpiexec.hydra)
     n1: 8048 0x111038: ??? (in /usr/bin/mpiexec.hydra)
      n1: 8048 0x113F60: ??? (in /usr/bin/mpiexec.hydra)
       n1: 8048 0x10DB19: ??? (in /usr/bin/mpiexec.hydra)
        n0: 8048 0x52B0B95: (below main) (libc-start.c:310)
  n1: 8048 0x12ADF7: ??? (in /usr/bin/mpiexec.hydra)
   n1: 8048 0x12B367: ??? (in /usr/bin/mpiexec.hydra)
    n1: 8048 0x10E342: ??? (in /usr/bin/mpiexec.hydra)
     n0: 8048 0x52B0B95: (below main) (libc-start.c:310)
 n0: 11003 in 42 places, all below massif's threshold (1.00%)
#-----------
snapshot=38
#-----------
time=616
mem_heap_B=91707
mem_heap_extra_B=2933
mem_stacks_B=0
heap_tree=empty
#-----------
snapshot=39
#-----------
time=620
mem_heap_B=91749
mem_heap_extra_B=2963
mem_stacks_B=0
heap_tree=empty
#-----------
snapshot=40
#-----------
time=621
mem_heap_B=91707
mem_heap_extra_B=2933
mem_stacks_B=0
heap_tree=detailed
n5: 91707 (heap allocation functions) malloc/new/new[], --alloc-fns, etc.
 n1: 65536 0x117326: ??? (in /usr/bin/mpiexec.hydra)
  n1: 65536 0x13792E: ??? (in /usr/bin/mpiexec.hydra)
   n1: 65536 0x115D79: ??? (in /usr/bin/mpiexec.hydra)
    n1: 65536 0x10EAC0: ??? (in /usr/bin/mpiexec.hydra)
     n0: 65536 0x52B0B95: (below main) (libc-start.c:310)
 n2: 16096 0x12AB4C: ??? (in /usr/bin/mpiexec.hydra)
  n1: 8048 0x110C8A: ??? (in /usr/bin/mpiexec.hydra)
   n1: 8048 0x112864: ??? (in /usr/bin/mpiexec.hydra)
    n1: 8048 0x12B893: ??? (in /usr/bin/mpiexec.hydra)
     n1: 8048 0x111038: ??? (in /usr/bin/mpiexec.hydra)
      n1: 8048 0x113F60: ??? (in /usr/bin/mpiexec.hydra)
       n1: 8048 0x10DB19: ??? (in /usr/bin/mpiexec.hydra)
        n0: 8048 0x52B0B95: (below main) (libc-start.c:310)
  n1: 8048 0x12ADF7: ??? (in /usr/bin/mpiexec.hydra)
   n1: 8048 0x12B367: ??? (in /usr/bin/mpiexec.hydra)
    n1: 8048 0x10E342: ??? (in /usr/bin/mpiexec.hydra)
     n0: 8048 0x52B0B95: (below main) (libc-start.c:310)
 n1: 5480 0x11F1FC: ??? (in /usr/bin/mpiexec.hydra)
  n1: 5480 0x123287: ??? (in /usr/bin/mpiexec.hydra)
   n1: 5480 0x118060: ??? (in /usr/bin/mpiexec.hydra)
    n1: 5480 0x13792E: ??? (in /usr/bin/mpiexec.hydra)
     n1: 5480 0x115D79: ??? (in /usr/bin/mpiexec.hydra)
      n1: 5480 0x10EAC0: ??? (in /usr/bin/mpiexec.hydra)
       n0: 5480 0x52B0B95: (below main) (libc-start.c:310)
 n0: 2707 in 42 places, all below massif's threshold (1.00%)
 n2: 1888 0x532C9B8: strdup (strdup.c:42)
  n1: 1120 0x1313BE: ??? (in /usr/bin/mpiexec.hydra)
   n1: 1120 0x11C53A: ??? (in /usr/bin/mpiexec.hydra)
    n1: 1120 0x1158F3: ??? (in /usr/bin/mpiexec.hydra)
     n1: 1120 0x10E4AA: ??? (in /usr/bin/mpiexec.hydra)
      n0: 1120 0x52B0B95: (below main) (libc-start.c:310)
  n0: 768 in 97 places, all below massif's threshold (1.00%)
#-----------
snapshot=41
#-----------
time=688
mem_heap_B=91785
mem_heap_extra_B=2943
mem_stacks_B=0
heap_tree=empty
#-----------
snapshot=42
#-----------
time=688
mem_heap_B=91707
mem_heap_extra_B=2933
mem_stacks_B=0
heap_tree=empty
#-----------
snapshot=43
#-----------
time=851
mem_heap_B=91735
mem_heap_extra_B=2945
mem_stacks_B=0
heap_tree=empty
#-----------
snapshot=44
#-----------
time=852
mem_heap_B=91707
mem_heap_extra_B=2933
mem_stacks_B=0
heap_tree=detailed
n5: 91707 (heap allocation functions) malloc/new/new[], --alloc-fns, etc.
 n1: 65536 0x117326: ??? (in /usr/bin/mpiexec.hydra)
  n1: 65536 0x13792E: ??? (in /usr/bin/mpiexec.hydra)
   n1: 65536 0x115D79: ??? (in /usr/bin/mpiexec.hydra)
    n1: 65536 0x10EAC0: ??? (in /usr/bin/mpiexec.hydra)
     n0: 65536 0x52B0B95: (below main) (libc-start.c:310)
 n2: 16096 0x12AB4C: ??? (in /usr/bin/mpiexec.hydra)
  n1: 8048 0x110C8A: ??? (in /usr/bin/mpiexec.hydra)
   n1: 8048 0x112864: ??? (in /usr/bin/mpiexec.hydra)
    n1: 8048 0x12B893: ??? (in /usr/bin/mpiexec.hydra)
     n1: 8048 0x111038: ??? (in /usr/bin/mpiexec.hydra)
      n1: 8048 0x113F60: ??? (in /usr/bin/mpiexec.hydra)
       n1: 8048 0x10DB19: ??? (in /usr/bin/mpiexec.hydra)
        n0: 8048 0x52B0B95: (below main) (libc-start.c:310)
  n1: 8048 0x12ADF7: ??? (in /usr/bin/mpiexec.hydra)
   n1: 8048 0x12B367: ??? (in /usr/bin/mpiexec.hydra)
    n1: 8048 0x10E342: ??? (in /usr/bin/mpiexec.hydra)
     n0: 8048 0x52B0B95: (below main) (libc-start.c:310)
 n1: 5480 0x11F1FC: ??? (in /usr/bin/mpiexec.hydra)
  n1: 5480 0x123287: ??? (in /usr/bin/mpiexec.hydra)
   n1: 5480 0x118060: ??? (in /usr/bin/mpiexec.hydra)
    n1: 5480 0x13792E: ??? (in /usr/bin/mpiexec.hydra)
     n1: 5480 0x115D79: ??? (in /usr/bin/mpiexec.hydra)
      n1: 5480 0x10EAC0: ??? (in /usr/bin/mpiexec.hydra)
       n0: 5480 0x52B0B95: (below main) (libc-start.c:310)
 n0: 2707 in 42 places, all below massif's threshold (1.00%)
 n2: 1888 0x532C9B8: strdup (strdup.c:42)
  n1: 1120 0x1313BE: ??? (in /usr/bin/mpiexec.hydra)
   n1: 1120 0x11C53A: ??? (in /usr/bin/mpiexec.hydra)
    n1: 1120 0x1158F3: ??? (in /usr/bin/mpiexec.hydra)
     n1: 1120 0x10E4AA: ??? (in /usr/bin/mpiexec.hydra)
      n0: 1120 0x52B0B95: (below main) (libc-start.c:310)
  n0: 768 in 97 places, all below massif's threshold (1.00%)
#-----------
snapshot=45
#-----------
time=860
mem_heap_B=91723
mem_heap_extra_B=2941
mem_stacks_B=0
heap_tree=empty
#-----------
snapshot=46
#-----------
time=862
mem_heap_B=85711
mem_heap_extra_B=2753
mem_stacks_B=0
heap_tree=empty
#-----------
snapshot=47
#-----------
time=864
mem_heap_B=216863
mem_heap_extra_B=2809
mem_stacks_B=0
heap_tree=empty
#-----------
snapshot=48
#-----------
time=867
mem_heap_B=216164
mem_heap_extra_B=2228
mem_stacks_B=0
heap_tree=empty
#-----------
snapshot=49
#-----------
time=868
mem_heap_B=214206
mem_heap_extra_B=506
mem_stacks_B=0
heap_tree=empty
#-----------
snapshot=50
#-----------
time=868
mem_heap_B=214192
mem_heap_extra_B=496
mem_stacks_B=0
heap_tree=empty
#-----------
snapshot=51
#-----------
time=868
mem_heap_B=214190
mem_heap_extra_B=474
mem_stacks_B=0
heap_tree=empty
#-----------
snapshot=52
#-----------
time=868
mem_heap_B=214172
mem_heap_extra_B=452
mem_stacks_B=0
heap_tree=empty
#-----------
snapshot=53
#-----------
time=868
mem_heap_B=214170
mem_heap_extra_B=430
mem_stacks_B=0
heap_tree=empty
#-----------
snapshot=54
#-----------
time=868
mem_heap_B=214153
mem_heap_extra_B=407
mem_stacks_B=0
heap_tree=empty
#-----------
snapshot=55
#-----------
time=868
mem_heap_B=214151
mem_heap_extra_B=385
mem_stacks_B=0
heap_tree=empty
#-----------
snapshot=56
#-----------
time=868
mem_heap_B=214139
mem_heap_extra_B=373
mem_stacks_B=0
heap_tree=detailed
n4: 214139 (heap allocation functions) malloc/new/new[], --alloc-fns, etc.
 n1: 131120 0x12FB35: ??? (in /usr/bin/mpiexec.hydra)
  n1: 131120 0x13CDE8: ??? (in /usr/bin/mpiexec.hydra)
   n1: 131120 0x13792E: ??? (in /usr/bin/mpiexec.hydra)
    n1: 131120 0x132814: ??? (in /usr/bin/mpiexec.hydra)
     n1: 131120 0x13253B: ??? (in /usr/bin/mpiexec.hydra)
      n1: 131120 0x115EC2: ??? (in /usr/bin/mpiexec.hydra)
       n1: 131120 0x10EAC0: ??? (in /usr/bin/mpiexec.hydra)
        n0: 131120 0x52B0B95: (below main) (libc-start.c:310)
 n1: 65536 0x117326: ??? (in /usr/bin/mpiexec.hydra)
  n1: 65536 0x13792E: ??? (in /usr/bin/mpiexec.hydra)
   n1: 65536 0x115D79: ??? (in /usr/bin/mpiexec.hydra)
    n1: 65536 0x10EAC0: ??? (in /usr/bin/mpiexec.hydra)
     n0: 65536 0x52B0B95: (below main) (libc-start.c:310)
 n2: 16096 0x12AB4C: ??? (in /usr/bin/mpiexec.hydra)
  n1: 8048 0x110C8A: ??? (in /usr/bin/mpiexec.hydra)
   n1: 8048 0x112864: ??? (in /usr/bin/mpiexec.hydra)
    n1: 8048 0x12B893: ??? (in /usr/bin/mpiexec.hydra)
     n1: 8048 0x111038: ??? (in /usr/bin/mpiexec.hydra)
      n1: 8048 0x113F60: ??? (in /usr/bin/mpiexec.hydra)
       n1: 8048 0x10DB19: ??? (in /usr/bin/mpiexec.hydra)
        n0: 8048 0x52B0B95: (below main) (libc-start.c:310)
  n1: 8048 0x12ADF7: ??? (in /usr/bin/mpiexec.hydra)
   n1: 8048 0x12B367: ??? (in /usr/bin/mpiexec.hydra)
    n1: 8048 0x10E342: ??? (in /usr/bin/mpiexec.hydra)
     n0: 8048 0x52B0B95: (below main) (libc-start.c:310)
 n0: 1387 in 45 places, all below massif's threshold (1.00%)
#-----------
snapshot=57
#-----------
time=868
mem_heap_B=214121
mem_heap_extra_B=351
mem_stacks_B=0
heap_tree=empty
#-----------
snapshot=58
#-----------
time=868
mem_heap_B=214109
mem_heap_extra_B=339
mem_stacks_B=0
heap_tree=empty
#-----------
snapshot=59
#-----------
time=868
mem_heap_B=214107
mem_heap_extra_B=317
mem_stacks_B=0
heap_tree=empty
#-----------
snapshot=60
#-----------
time=868
mem_heap_B=214093
mem_heap_extra_B=307
mem_stacks_B=0
heap_tree=empty
#-----------
snapshot=61
#-----------
time=868
mem_heap_B=213597
mem_heap_extra_B=299
mem_stacks_B=0
heap_tree=empty
#-----------
snapshot=62
#-----------
time=869
mem_heap_B=213581
mem_heap_extra_B=291
mem_stacks_B=0
heap_tree=empty
#-----------
snapshot=63
#-----------
time=869
mem_heap_B=213565
mem_heap_extra_B=283
mem_stacks_B=0
heap_tree=empty
#-----------
snapshot=64
#-----------
time=869
mem_heap_B=213551
mem_heap_extra_B=273
mem_stacks_B=0
heap_tree=empty
#-----------
snapshot=65
#-----------
time=869
mem_heap_B=213533
mem_heap_extra_B=251
mem_stacks_B=0
heap_tree=empty
#-----------
snapshot=66
#-----------
time=869
mem_heap_B=205485
mem_heap_extra_B=243
mem_stacks_B=0
heap_tree=detailed
n4: 205485 (heap allocation functions) malloc/new/new[], --alloc-fns, etc.
 n1: 131120 0x12FB35: ??? (in /usr/bin/mpiexec.hydra)
  n1: 131120 0x13CDE8: ??? (in /usr/bin/mpiexec.hydra)
   n1: 131120 0x13792E: ??? (in /usr/bin/mpiexec.hydra)
    n1: 131120 0x132814: ??? (in /usr/bin/mpiexec.hydra)
     n1: 131120 0x13253B: ??? (in /usr/bin/mpiexec.hydra)
      n1: 131120 0x115EC2: ??? (in /usr/bin/mpiexec.hydra)
       n1: 131120 0x10EAC0: ??? (in /usr/bin/mpiexec.hydra)
        n0: 131120 0x52B0B95: (below main) (libc-start.c:310)
 n1: 65536 0x117326: ??? (in /usr/bin/mpiexec.hydra)
  n1: 65536 0x13792E: ??? (in /usr/bin/mpiexec.hydra)
   n1: 65536 0x115D79: ??? (in /usr/bin/mpiexec.hydra)
    n1: 65536 0x10EAC0: ??? (in /usr/bin/mpiexec.hydra)
     n0: 65536 0x52B0B95: (below main) (libc-start.c:310)
 n2: 8048 0x12AB4C: ??? (in /usr/bin/mpiexec.hydra)
  n1: 8048 0x110C8A: ??? (in /usr/bin/mpiexec.hydra)
   n1: 8048 0x112864: ??? (in /usr/bin/mpiexec.hydra)
    n1: 8048 0x12B893: ??? (in /usr/bin/mpiexec.hydra)
     n1: 8048 0x111038: ??? (in /usr/bin/mpiexec.hydra)
      n1: 8048 0x113F60: ??? (in /usr/bin/mpiexec.hydra)
       n1: 8048 0x10DB19: ??? (in /usr/bin/mpiexec.hydra)
        n0: 8048 0x52B0B95: (below main) (libc-start.c:310)
  n0: 0 in 1 place, below massif's threshold (1.00%)
 n0: 781 in 45 places, all below massif's threshold (1.00%)
#-----------
snapshot=67
#-----------
time=869
mem_heap_B=205405
mem_heap_extra_B=235
mem_stacks_B=0
heap_tree=empty
#-----------
snapshot=68
#-----------
time=869
mem_heap_B=205391
mem_heap_extra_B=225
mem_stacks_B=0
heap_tree=empty
#-----------
snapshot=69
#-----------
time=869
mem_heap_B=205373
mem_heap_extra_B=203
mem_stacks_B=0
heap_tree=empty
#-----------
snapshot=70
#-----------
time=869
mem_heap_B=197325
mem_heap_extra_B=195
mem_stacks_B=0
heap_tree=empty
#-----------
snapshot=71
#-----------
time=869
mem_heap_B=131765
mem_heap_extra_B=179
mem_stacks_B=0
heap_tree=empty
#-----------
snapshot=72
#-----------
time=869
mem_heap_B=66205
mem_heap_extra_B=163
mem_stacks_B=0
heap_tree=empty
#-----------
snapshot=73
#-----------
time=869
mem_heap_B=66184
mem_heap_extra_B=144
mem_stacks_B=0
heap_tree=empty
#-----------
snapshot=74
#-----------
time=874
mem_heap_B=66176
mem_heap_extra_B=128
mem_stacks_B=0
heap_tree=empty
#-----------
snapshot=75
#-----------
time=874
mem_heap_B=66160
mem_heap_extra_B=120
mem_stacks_B=0
heap_tree=empty
#-----------
snapshot=76
#-----------
time=874
mem_heap_B=66152
mem_heap_extra_B=104
mem_stacks_B=0
heap_tree=detailed
n2: 66152 (heap allocation functions) malloc/new/new[], --alloc-fns, etc.
 n1: 65536 0x117326: ??? (in /usr/bin/mpiexec.hydra)
  n1: 65536 0x13792E: ??? (in /usr/bin/mpiexec.hydra)
   n1: 65536 0x115D79: ??? (in /usr/bin/mpiexec.hydra)
    n1: 65536 0x10EAC0: ??? (in /usr/bin/mpiexec.hydra)
     n0: 65536 0x52B0B95: (below main) (libc-start.c:310)
 n0: 616 in 47 places, all below massif's threshold (1.00%)
#-----------
snapshot=77
#-----------
time=874
mem_heap_B=66136
mem_heap_extra_B=96
mem_stacks_B=0
heap_tree=empty
#-----------
snapshot=78
#-----------
time=874
mem_heap_B=66008
mem_heap_extra_B=88
mem_stacks_B=0
heap_tree=empty
#-----------
snapshot=79
#-----------
time=874
mem_heap_B=65992
mem_heap_extra_B=80
mem_stacks_B=0
heap_tree=empty
#-----------
snapshot=80
#-----------
time=874
mem_heap_B=65984
mem_heap_extra_B=64
mem_stacks_B=0
heap_tree=empty
#-----------
snapshot=81
#-----------
time=874
mem_heap_B=65968
mem_heap_extra_B=56
mem_stacks_B=0
heap_tree=empty
#-----------
snapshot=82
#-----------
time=874
mem_heap_B=65840
mem_heap_extra_B=48
mem_stacks_B=0
heap_tree=empty
#-----------
snapshot=83
#-----------
time=874
mem_heap_B=65824
mem_heap_extra_B=40
mem_stacks_B=0
heap_tree=empty
#-----------
snapshot=84
#-----------
time=874
mem_heap_B=65696
mem_heap_extra_B=32
mem_stacks_B=0
heap_tree=empty
#-----------
snapshot=85
#-----------
time=874
mem_heap_B=65680
mem_heap_extra_B=24
mem_stacks_B=0
heap_tree=empty
#-----------
snapshot=86
#-----------
time=874
mem_heap_B=65552
mem_heap_extra_B=16
mem_stacks_B=0
heap_tree=detailed
n2: 65552 (heap allocation functions) malloc/new/new[], --alloc-fns, etc.
 n1: 65536 0x117326: ??? (in /usr/bin/mpiexec.hydra)
  n1: 65536 0x13792E: ??? (in /usr/bin/mpiexec.hydra)
   n1: 65536 0x115D79: ??? (in /usr/bin/mpiexec.hydra)
    n1: 65536 0x10EAC0: ??? (in /usr/bin/mpiexec.hydra)
     n0: 65536 0x52B0B95: (below main) (libc-start.c:310)
 n0: 16 in 47 places, all below massif's threshold (1.00%)
#-----------
snapshot=87
#-----------
time=874
mem_heap_B=65536
mem_heap_extra_B=8
mem_stacks_B=0
heap_tree=empty
